…
``` r
thelaw.nba
```

    ## Source: local data frame [23 x 6]
    ## Groups: <by row>
    ## 
    ## # A tibble: 23 x 6
    ##     year total_games law_invoked law_correct pct_games_invok…
    ##    <int>       <int>       <int>       <int>            <dbl>
    ##  1  1997        1189         677         640            0.569
    ##  2  1998        1189         597         578            0.502
    ##  3  1999         725         266         256            0.367
    ##  4  2000        1189         723         698            0.608
    ##  5  2001        1189         585         561            0.492
    ##  6  2002        1189         602         578            0.506
    ##  7  2003        1189         580         544            0.488
    ##  8  2004        1189         493         470            0.415
    ##  9  2005        1230         706         660            0.574
    ## 10  2006        1230         686         647            0.558
    ## # ... with 13 more rows, and 1 more variable: pct_law_correct <dbl>

``` r
thelaw.lac
```

    ## Source: local data frame [23 x 6]
    ## Groups: <by row>
    ## 
    ## # A tibble: 23 x 6
    ##     year total_games law_invoked law_correct pct_games_invok…
    ##    <int>       <int>       <int>       <int>            <dbl>
    ##  1  1997          82          48          43            0.585
    ##  2  1998          82          51          48            0.622
    ##  3  1999          50          28          28            0.56 
    ##  4  2000          82          53          52            0.646
    ##  5  2001          82          33          30            0.402
    ##  6  2002          82          42          41            0.512
    ##  7  2003          82          43          39            0.524
    ##  8  2004          82          48          47            0.585
    ##  9  2005          82          36          33            0.439
    ## 10  2006          82          43          41            0.524
    ## # ... with 13 more rows, and 1 more variable: pct_law_correct <dbl>
…
